Chapter 3 Chapter 3 Data transformation | Film Industry Trend Exploration
…
- Eventually, we filtered the original dataset with the top 10 director writer pairs.

For addressing the second question mentioned above we need to perform the following transformations:

- To begin with, we used the dataset created for the above question which contained the director writer pairs. Furthermore, we grouped the data by “director_writer_pair”, “titleType”, and “genres” and then summarized the data by calculating the total number of Votes received by the pair for different title types.

- Further, we summarized the same grouped data for calculating the weighted rating which is calculated by taking the sum of average rating \(\times\) number of Votes divided by total number of Votes.

- Next, we joined both the grouped data to get the weighted rating as well as total number of Votes for a particular director-writer pair.

- Finally, we filtered the data by weighted rating in order to get only the pairs having weighted rating equal to 10. We then merged this filtered data with the data having the count of number of times a particular pair worked together.

- The final dataset had total of 783 pairs who had average rating of 10 so to further filter the data we studied the distribution of the number of times the pair worked together and found that out of 783, 692 pairs worked with each other only once or twice and therefore we further narrowed the data to only consider the pairs who have worked more than 5 times with each other.

## # A tibble: 603,287 × 4
## # Groups:   director_writer_pair, directors [603,287]
##    director_writer_pair            directors writers             weightedRating
##    <chr>                           <chr>     <chr>                        <dbl>
##  1 nm0000005 - nm0000005           nm0000005 nm0000005                     8.06
##  2 nm0000005 - nm0000005,nm0279027 nm0000005 nm0000005,nm0279027           6.4 
##  3 nm0000005 - nm0000005,nm0340471 nm0000005 nm0000005,nm0340471           7.5 
##  4 nm0000005 - nm0000005,nm0410694 nm0000005 nm0000005,nm0410694           7.5 
##  5 nm0000005 - nm0000005,nm0529508 nm0000005 nm0000005,nm0529508           6.6 
##  6 nm0000005 - nm0000005,nm0845496 nm0000005 nm0000005,nm0845496           6.4 
##  7 nm0000005 - nm0000005,nm1749058 nm0000005 nm0000005,nm1749058           7   
##  8 nm0000005 - nm0051923,nm0000005 nm0000005 nm0051923,nm0000005           7.1 
##  9 nm0000005 - nm0074790           nm0000005 nm0074790                     6.2 
## 10 nm0000005 - nm0091112,nm0649636 nm0000005 nm0091112,nm0649636           5.6 
## # … with 603,277 more rows

3.3.1 Interactive Plot

## # A tibble: 4,137 × 4
## # Groups:   titleType [10]
##    titleType genres                     weightedRating totalVotes
##    <chr>     <chr>                               <dbl>      <int>
##  1 movie     Action                               5.35     124954
##  2 movie     Action,Adult                         4.69        286
##  3 movie     Action,Adult,Adventure               6.6           8
##  4 movie     Action,Adult,Crime                   5.37        241
##  5 movie     Action,Adult,Drama                   4.66       1196
##  6 movie     Action,Adventure                     7.51    3527216
##  7 movie     Action,Adventure,Animation           7.23    1342592
##  8 movie     Action,Adventure,Biography           7.07     684209
##  9 movie     Action,Adventure,Comedy              6.60    8364728
## 10 movie     Action,Adventure,Crime               6.32    1809553
## # … with 4,127 more rows
…
