Chapter 3 Data transformation | Film Industry Trend Exploration
…
## # A tibble: 282,922 x 2
## # Groups:   directors [282,922]
##    directors                                   n
##    <chr>                                   <int>
##  1 nm0000005                                  79
##  2 nm0000005,nm0138058                         1
##  3 nm0000008                                   1
##  4 nm0000010                                   1
##  5 nm0000018                                   1
##  6 nm0000019                                  22
##  7 nm0000019,nm0598102,nm0001120,nm0899581     1
##  8 nm0000019,nm0671862,nm0001501               1
##  9 nm0000032                                   2
## 10 nm0000033                                  78
## # ... with 282,912 more rows
…
- Next as the total unique director writer pairs were approximately 600K so visualizing all of them was not possible. Therefore, we decided to pick top 10 pairs based on the number of times they worked together. So we calculated the count of all the pairs and then selected the top 10. 

- Further we filtered the original dataset with the top 10 director writer pairs.

For addressing the second question mentioned above we need to perform the following transformations:

- First, we used the dataset created for the above question which contained the director writer pairs. Furthermore, we group_by the data by “director_writer_pair”, “titleType”, and “genres” and then we summarised the data by calculating the total number of Votes

- Further, we summarised the same grouped data for calculating the weightedRating which is calculated by taking the sum of averageRating * numVotes divided by total numVotes.

- Further we then joined both the grouped data to get the weightedRating as well as total numVotes for a particular director_writer_pair. 

- Finally, wew filtered the data by weightedRating inorder to get only the pairs having weightedRating equal to 10. We then merged this filtered data with the data having the count of number of times a partcular pair worked together. The final dataset had total of 783 pairs who had averageRating of 10 so to further filter the data we studied the distribution of the number of times the pair worked together and found that out of 783, 692 pairs only worked with each other once or twice and therefore we further narrowed the data to only consider the pairs who have worked atleast 5 times with each other.

## # A tibble: 603,256 x 4
## # Groups:   director_writer_pair, directors [603,256]
##    director_writer_pair            directors writers             weightedRating
##    <chr>                           <chr>     <chr>                        <dbl>
##  1 nm0000005 - nm0000005           nm0000005 nm0000005                     8.06
##  2 nm0000005 - nm0000005,nm0279027 nm0000005 nm0000005,nm0279027           6.4 
##  3 nm0000005 - nm0000005,nm0340471 nm0000005 nm0000005,nm0340471           7.5 
##  4 nm0000005 - nm0000005,nm0410694 nm0000005 nm0000005,nm0410694           7.5 
##  5 nm0000005 - nm0000005,nm0529508 nm0000005 nm0000005,nm0529508           6.6 
##  6 nm0000005 - nm0000005,nm0845496 nm0000005 nm0000005,nm0845496           6.4 
##  7 nm0000005 - nm0000005,nm1749058 nm0000005 nm0000005,nm1749058           7   
##  8 nm0000005 - nm0051923,nm0000005 nm0000005 nm0051923,nm0000005           7.1 
##  9 nm0000005 - nm0074790           nm0000005 nm0074790                     6.2 
## 10 nm0000005 - nm0091112,nm0649636 nm0000005 nm0091112,nm0649636           5.5 
## # ... with 603,246 more rows
…
## # A tibble: 508,987 x 3
## # Groups:   directors [242,746]
##    directors startYear weightedRating
##    <chr>     <chr>              <dbl>
##  1 nm0000005 1946                6.47
##  2 nm0000005 1947                6.4 
##  3 nm0000005 1948                6.53
##  4 nm0000005 1949                6.63
##  5 nm0000005 1950                6.89
##  6 nm0000005 1951                7.49
##  7 nm0000005 1952                7   
##  8 nm0000005 1953                7.5 
##  9 nm0000005 1954                7   
## 10 nm0000005 1955                7.67
## # ... with 508,977 more rows
